<?xml version="1.0" encoding="UTF-8" standalone="no"?>
<svg width="800" height ="600" version="1.1"
xmlns:svg ="http://www.w3.org/2000/svg"
xmlns:rdf="http://www.w3.org/1999/02/22-rdf-syntax-ns#"
xmlns:cc="http://web.resource.org/cc/"
xmlns:dc="http://purl.org/dc/elements/1.1/"
xmlns ="http://www.w3.org/2000/svg"
>
<!-- SVG plot written using Boost.Plot program (Creator Jacob Voytko) --> 
<!-- Use, modification and distribution of Boost.Plot subject to the --> 
<!-- Boost Software License, Version 1.0.--> 
<!-- (See accompanying file LICENSE_1_0.txt --> 
<!-- or copy at http://www.boost.org/LICENSE_1_0.txt) --> 

<!-- SVG Plot Copyright Participants of class: Applied Earth Observation
Vienna University of Technology  --> 
<meta name="copyright" content="Participants of class: Applied Earth Observation
Vienna University of Technology" />
<meta name="date" content="" />
<!-- Histogram and basic statistics for data set: aoi.odm --> 
<desc>Histogram and basic statistics for data set: aoi.odm</desc>
<clipPath id="plot_window"><rect x="76.8" y="54" width="696" height="486"/></clipPath>
<g id="imageBackground" stroke="rgb(0,0,0)" fill="rgb(255,255,255)" stroke-width="2"><rect x="0" y="0" width="800" height="600"/></g>
<g id="plotBackground" stroke="rgb(119,136,153)" fill="rgb(255,255,255)" stroke-width="2"><rect x="75.8" y="53" width="698" height="488"/></g>
<g id="yMinorGrid" stroke="rgb(200,220,255)" stroke-width="0.5"></g>
<g id="yMajorGrid" stroke="rgb(200,220,255)" stroke-width="1"></g>
<g id="xMinorGrid" stroke="rgb(200,220,255)" stroke-width="0.5"></g>
<g id="xMajorGrid" stroke="rgb(200,220,255)" stroke-width="1"></g>
<g id="yMinorTicks" stroke="rgb(0,0,0)" stroke-width="1"><path d="M73.8,541 L75.8,541 " fill="none"/></g>
<g id="xMinorTicks" stroke="rgb(0,0,0)" stroke-width="1"></g>
<g id="yMajorTicks" stroke="rgb(0,0,0)" stroke-width="2"><path d="M70.8,541 L75.8,541 M70.8,487 L75.8,487 M70.8,433 L75.8,433 M70.8,378 L75.8,378 M70.8,324 L75.8,324 M70.8,270 L75.8,270 M70.8,216 L75.8,216 M70.8,161 L75.8,161 M70.8,107 L75.8,107 M70.8,53 L75.8,53 M70.8,541 L75.8,541 " fill="none"/></g>
<g id="xMajorTicks" stroke="rgb(0,0,0)" stroke-width="2"><path d="M163,541 L163,546 M250,541 L250,546 M338,541 L338,546 M425,541 L425,546 M512,541 L512,546 M599,541 L599,546 M687,541 L687,546 M774,541 L774,546 M163,541 L163,546 M75.8,541 L75.8,546 " fill="none"/></g>
<g id="xTicksValues">
<text x="163" y="562" text-anchor="middle" font-size="12" font-family="Lucida Sans Unicode">0</text>
<text x="250" y="562" text-anchor="middle" font-size="12" font-family="Lucida Sans Unicode">1</text>
<text x="338" y="562" text-anchor="middle" font-size="12" font-family="Lucida Sans Unicode">2</text>
<text x="425" y="562" text-anchor="middle" font-size="12" font-family="Lucida Sans Unicode">3</text>
<text x="512" y="562" text-anchor="middle" font-size="12" font-family="Lucida Sans Unicode">4</text>
<text x="599" y="562" text-anchor="middle" font-size="12" font-family="Lucida Sans Unicode">5</text>
<text x="687" y="562" text-anchor="middle" font-size="12" font-family="Lucida Sans Unicode">6</text>
<text x="774" y="562" text-anchor="middle" font-size="12" font-family="Lucida Sans Unicode">7</text>
<text x="163" y="562" text-anchor="middle" font-size="12" font-family="Lucida Sans Unicode">0</text>
<text x="75.8" y="562" text-anchor="middle" font-size="12" font-family="Lucida Sans Unicode">-1</text></g>
<g id="yTicksValues">
<text x="64.8" y="543" text-anchor="end" font-size="12" font-family="Lucida Sans Unicode">0</text>
<text x="64.8" y="489" text-anchor="end" font-size="12" font-family="Lucida Sans Unicode">10</text>
<text x="64.8" y="435" text-anchor="end" font-size="12" font-family="Lucida Sans Unicode">20</text>
<text x="64.8" y="381" text-anchor="end" font-size="12" font-family="Lucida Sans Unicode">30</text>
<text x="64.8" y="327" text-anchor="end" font-size="12" font-family="Lucida Sans Unicode">40</text>
<text x="64.8" y="272" text-anchor="end" font-size="12" font-family="Lucida Sans Unicode">50</text>
<text x="64.8" y="218" text-anchor="end" font-size="12" font-family="Lucida Sans Unicode">60</text>
<text x="64.8" y="164" text-anchor="end" font-size="12" font-family="Lucida Sans Unicode">70</text>
<text x="64.8" y="110" text-anchor="end" font-size="12" font-family="Lucida Sans Unicode">80</text>
<text x="64.8" y="55.4" text-anchor="end" font-size="12" font-family="Lucida Sans Unicode">90</text>
<text x="64.8" y="543" text-anchor="end" font-size="12" font-family="Lucida Sans Unicode">0</text></g>
<g id="yLabel">
<text x="42.9" y="297" text-anchor="middle" transform = "rotate(-90 42.9 297 )" font-size="14" font-family="Lucida Sans Unicode">density of EchoNumber [%]</text></g>
<g id="xLabel">
<text x="425" y="577" text-anchor="middle" font-size="14" font-family="Lucida Sans Unicode">EchoNumber</text></g>
<g id="plotPoints" clip-path="url(#plot_window)"><g stroke="rgb(139,0,0)" fill="rgb(255,160,122)" stroke-width="2"><path d="M119,541 L119,541 L207,541 L207,541 Z" fill="rgb(255,160,122)"/><path d="M207,541 L207,105 L294,105 L294,541 ZM294,541 L294,459 L381,459 L381,541 ZM381,541 L381,520 L469,520 L469,541 ZM469,541 L469,538 L556,538 L556,541 ZM556,541 L556,541 L643,541 L643,541 Z" fill="rgb(173,216,230)"/><path d="M643,541 L643,541 L730,541 L730,541 Z" fill="rgb(255,160,122)"/></g>
</g>
<g id="title">
<text x="400" y="36" text-anchor="middle" font-size="18" font-family="Lucida Sans Unicode">Histogram: aoi.odm</text></g>
<g id="plotXValues"></g>
<g id="plotYValues"></g>
<g fill="rgb(0,0,0)">
<text x="576" y="72" font-size="12" font-family="Verdana">#Data: 39032235</text></g>
<g fill="rgb(0,0,0)">
<text x="576" y="87" font-size="12" font-family="Verdana">#Used: 39032235</text></g>
<g fill="rgb(0,0,0)">
<text x="576" y="102" font-size="12" font-family="Verdana">Min: 1.000</text></g>
<g fill="rgb(0,0,0)">
<text x="576" y="117" font-size="12" font-family="Verdana">Max: 7.000</text></g>
<g fill="rgb(0,0,0)">
<text x="576" y="132" font-size="12" font-family="Verdana">Mean: 1.247</text></g>
<g fill="rgb(0,0,0)">
<text x="576" y="147" font-size="12" font-family="Verdana">Median: 1.000</text></g>
<g fill="rgb(0,0,0)">
<text x="576" y="162" font-size="12" font-family="Verdana">Mode: 1.000</text></g>
<g fill="rgb(0,0,0)">
<text x="576" y="177" font-size="12" font-family="Verdana">StdDev: 0.547</text></g>
<g fill="rgb(0,0,0)">
<text x="576" y="192" font-size="12" font-family="Verdana">StdDevMAD: 0.000</text></g>
<g fill="rgb(0,0,0)">
<text x="576" y="207" font-size="12" font-family="Verdana">Rms: 1.361</text></g>
<g fill="rgb(0,0,0)">
<text x="576" y="222" font-size="12" font-family="Verdana">Skewness: 2.378</text></g>
<g fill="rgb(0,0,0)">
<text x="576" y="237" font-size="12" font-family="Verdana">CalcMode: integer</text></g>
</svg>
